<?xml version="1.0" encoding="UTF-8" standalone="no"?>
<?xml-stylesheet type="text/css" href="../css/svg.css"?>
<svg
   xmlns:dc="http://purl.org/dc/elements/1.1/"
   xmlns:cc="http://creativecommons.org/ns#"
   xmlns:rdf="http://www.w3.org/1999/02/22-rdf-syntax-ns#"
   xmlns:svg="http://www.w3.org/2000/svg"
   xmlns="http://www.w3.org/2000/svg"
   xmlns:xlink="http://www.w3.org/1999/xlink"
   xmlns:sodipodi="http://sodipodi.sourceforge.net/DTD/sodipodi-0.dtd"
   xmlns:inkscape="http://www.inkscape.org/namespaces/inkscape"
   width="297mm"
   height="210mm"
   viewBox="0 0 297 210"
   version="1.1"
   id="svg5199"
   inkscape:version="1.0.1 (3bc2e813f5, 2020-09-07)"
   sodipodi:docname="mixer.svg">
  <style
     id="style893"></style>
  <defs
     id="defs5193">
    <linearGradient
       inkscape:collect="always"
       id="linearGradient7684">
      <stop
         style="stop-color:#5a560f;stop-opacity:1;"
         offset="0"
         id="stop7680" />
      <stop
         style="stop-color:#5a560f;stop-opacity:0.32156864"
         offset="1"
         id="stop7682" />
    </linearGradient>
    <filter
       inkscape:label="Canvas Bumps Matte"
       inkscape:menu="Bumps"
       inkscape:menu-tooltip="Same as Canvas Bumps but with a diffuse light instead of a specular one"
       style="color-interpolation-filters:sRGB"
       id="filter6194"
       x="-0.10000002"
       y="-0.10900104"
       width="1.2"
       height="1.2090011">
      <feTurbulence
         baseFrequency="0.2"
         seed="300"
         numOctaves="7"
         result="result1"
         type="turbulence"
         id="feTurbulence6176" />
      <feDisplacementMap
         in2="result1"
         xChannelSelector="R"
         result="result6"
         id="feDisplacementMap6178"
         scale="0"
         yChannelSelector="A" />
      <feBlend
         result="fbSourceGraphic"
         mode="screen"
         in2="SourceGraphic"
         in="result6"
         id="feBlend6180" />
      <feColorMatrix
         values="1 0 0 -1 0 1 0 1 -1 0 1 0 0 -1 0 -0.8 -1 0 4 -2.5 "
         result="fbSourceGraphicAlpha"
         id="feColorMatrix6182" />
      <feGaussianBlur
         stdDeviation="0.5"
         in="fbSourceGraphicAlpha"
         result="result0"
         id="feGaussianBlur6184" />
      <feDiffuseLighting
         result="result5"
         surfaceScale="15"
         diffuseConstant="0.40000001"
         id="feDiffuseLighting6188">
        <feDistantLight
           azimuth="235"
           elevation="25"
           id="feDistantLight6186" />
      </feDiffuseLighting>
      <feComposite
         result="result4"
         operator="arithmetic"
         k2="0.9"
         k3="0.9"
         in2="SourceGraphic"
         id="feComposite6190"
         k1="0"
         k4="0" />
      <feComposite
         in2="SourceGraphic"
         in="result4"
         result="result2"
         operator="in"
         id="feComposite6192" />
    </filter>
    <linearGradient
       inkscape:collect="always"
       xlink:href="#linearGradient7684"
       id="linearGradient7686"
       gradientUnits="userSpaceOnUse"
       x1="8.2941482"
       y1="134.8546"
       x2="289.28636"
       y2="134.8546" />
    <filter
       inkscape:label="Metallized Ridge"
       inkscape:menu="Ridges"
       inkscape:menu-tooltip="Gel Ridge metallized at its top"
       height="2"
       y="-0.5"
       width="2"
       x="-0.5"
       style="color-interpolation-filters:sRGB;"
       id="filter2080">
      <feGaussianBlur
         stdDeviation="1"
         result="result1"
         id="feGaussianBlur2056" />
      <feGaussianBlur
         stdDeviation="8"
         result="result6"
         in="result1"
         id="feGaussianBlur2058" />
      <feComposite
         operator="atop"
         in="result6"
         in2="result1"
         result="result8"
         id="feComposite2060" />
      <feComposite
         operator="xor"
         result="fbSourceGraphic"
         in="result6"
         in2="result8"
         id="feComposite2062" />
      <feColorMatrix
         result="fbSourceGraphicAlpha"
         in="fbSourceGraphic"
         values="0 0 0 -1 0 0 0 0 -1 0 0 0 0 -1 0 0 0 0 2 0 "
         id="feColorMatrix2064" />
      <feGaussianBlur
         result="result0"
         in="fbSourceGraphicAlpha"
         stdDeviation="2.5"
         id="feGaussianBlur2066" />
      <feSpecularLighting
         specularExponent="35"
         specularConstant="1"
         surfaceScale="4"
         lighting-color="rgb(255,255,255)"
         result="result1"
         in="result0"
         id="feSpecularLighting2070">
        <fePointLight
           z="20000"
           y="-10000"
           x="-5000"
           id="fePointLight2068" />
      </feSpecularLighting>
      <feComposite
         operator="in"
         result="result2"
         in="result1"
         in2="fbSourceGraphicAlpha"
         id="feComposite2072" />
      <feComposite
         k3="1"
         k2="1"
         operator="arithmetic"
         result="result4"
         in="fbSourceGraphic"
         in2="result2"
         id="feComposite2074" />
      <feComposite
         operator="atop"
         in="result9"
         in2="result4"
         result="result91"
         id="feComposite2076" />
      <feBlend
         mode="multiply"
         in2="result91"
         id="feBlend2078" />
    </filter>
    <filter
       inkscape:label="Metallized Ridge"
       inkscape:menu="Ridges"
       inkscape:menu-tooltip="Gel Ridge metallized at its top"
       height="2"
       y="-0.5"
       width="2"
       x="-0.5"
       style="color-interpolation-filters:sRGB;"
       id="filter2106">
      <feGaussianBlur
         stdDeviation="1"
         result="result1"
         id="feGaussianBlur2082" />
      <feGaussianBlur
         stdDeviation="8"
         result="result6"
         in="result1"
         id="feGaussianBlur2084" />
      <feComposite
         operator="atop"
         in="result6"
         in2="result1"
         result="result8"
         id="feComposite2086" />
      <feComposite
         operator="xor"
         result="fbSourceGraphic"
         in="result6"
         in2="result8"
         id="feComposite2088" />
      <feColorMatrix
         result="fbSourceGraphicAlpha"
         in="fbSourceGraphic"
         values="0 0 0 -1 0 0 0 0 -1 0 0 0 0 -1 0 0 0 0 2 0 "
         id="feColorMatrix2090" />
      <feGaussianBlur
         result="result0"
         in="fbSourceGraphicAlpha"
         stdDeviation="2.5"
         id="feGaussianBlur2092" />
      <feSpecularLighting
         specularExponent="35"
         specularConstant="1"
         surfaceScale="4"
         lighting-color="rgb(255,255,255)"
         result="result1"
         in="result0"
         id="feSpecularLighting2096">
        <fePointLight
           z="20000"
           y="-10000"
           x="-5000"
           id="fePointLight2094" />
      </feSpecularLighting>
      <feComposite
         operator="in"
         result="result2"
         in="result1"
         in2="fbSourceGraphicAlpha"
         id="feComposite2098" />
      <feComposite
         k3="1"
         k2="1"
         operator="arithmetic"
         result="result4"
         in="fbSourceGraphic"
         in2="result2"
         id="feComposite2100" />
      <feComposite
         operator="atop"
         in="result9"
         in2="result4"
         result="result91"
         id="feComposite2102" />
      <feBlend
         mode="multiply"
         in2="result91"
         id="feBlend2104" />
    </filter>
    <filter
       inkscape:label="Metallized Ridge"
       inkscape:menu="Ridges"
       inkscape:menu-tooltip="Gel Ridge metallized at its top"
       height="2"
       y="-0.5"
       width="2"
       x="-0.5"
       style="color-interpolation-filters:sRGB;"
       id="filter2132">
      <feGaussianBlur
         stdDeviation="1.01"
         result="result1"
         id="feGaussianBlur2108" />
      <feGaussianBlur
         stdDeviation="0.01"
         result="result6"
         in="result1"
         id="feGaussianBlur2110" />
      <feComposite
         operator="clear"
         in="result6"
         in2="result1"
         result="result8"
         id="feComposite2112" />
      <feComposite
         operator="over"
         result="fbSourceGraphic"
         in="result6"
         in2="result8"
         id="feComposite2114" />
      <feColorMatrix
         result="fbSourceGraphicAlpha"
         in="fbSourceGraphic"
         values="0 0 0 -1 0 0 0 0 -1 0 0 0 0 -1 0 0 0 0 2 0 "
         id="feColorMatrix2116" />
      <feGaussianBlur
         result="result0"
         in="fbSourceGraphicAlpha"
         stdDeviation="1.0099999999999998"
         id="feGaussianBlur2118" />
      <feSpecularLighting
         specularExponent="35"
         specularConstant="1.4220183486238533"
         surfaceScale="4"
         lighting-color="rgb(255,255,255)"
         result="result1"
         in="result0"
         id="feSpecularLighting2122"
         kernelUnitLength="1.073574144486692">
        <fePointLight
           z="20000"
           y="-10000"
           x="-5000"
           id="fePointLight2120" />
      </feSpecularLighting>
      <feComposite
         operator="in"
         result="result2"
         in="result1"
         in2="fbSourceGraphicAlpha"
         id="feComposite2124" />
      <feComposite
         k3="1.6510903426791259"
         k2="1.0280373831775691"
         operator="arithmetic"
         result="result4"
         in="fbSourceGraphic"
         in2="result2"
         id="feComposite2126"
         k1="-1.1526479750778815"
         k4="-0.031152647975078551" />
      <feComposite
         operator="atop"
         in="result9"
         in2="result4"
         result="result91"
         id="feComposite2128" />
      <feBlend
         mode="multiply"
         in2="result91"
         id="feBlend2130" />
    </filter>
  </defs>
  <sodipodi:namedview
     id="base"
     pagecolor="#ffffff"
     bordercolor="#666666"
     borderopacity="1.0"
     inkscape:pageopacity="0.0"
     inkscape:pageshadow="2"
     inkscape:zoom="0.70710678"
     inkscape:cx="193.60819"
     inkscape:cy="483.43614"
     inkscape:document-units="mm"
     inkscape:current-layer="layer1"
     inkscape:document-rotation="0"
     showgrid="false"
     inkscape:window-width="1920"
     inkscape:window-height="1017"
     inkscape:window-x="-8"
     inkscape:window-y="-8"
     inkscape:window-maximized="1" />
  <metadata
     id="metadata5196">
    <rdf:RDF>
      <cc:Work
         rdf:about="">
        <dc:format>image/svg+xml</dc:format>
        <dc:type
           rdf:resource="http://purl.org/dc/dcmitype/StillImage" />
        <dc:title></dc:title>
      </cc:Work>
    </rdf:RDF>
  </metadata>
  <g
     inkscape:label="Слой 1"
     inkscape:groupmode="layer"
     id="layer1"
     style="display:inline">
    <path
       id="rect5784"
       style="font-variation-settings:normal;display:inline;opacity:0.776882;vector-effect:none;fill:url(#linearGradient7686);fill-opacity:1;fill-rule:evenodd;stroke:#000000;stroke-width:1.94166;stroke-miterlimit:4;stroke-dasharray:none;stroke-opacity:1;stop-color:#000000;stop-opacity:1"
       d="m 9.2709302,114.17994 96.7743898,-42.027756 6.6541,-0.360049 0.0103,-4.145711 71.96138,0.09004 0.17115,4.072682 6.53893,0.180763 95.98656,41.054711 0.28248,7.64108 -4.76265,0.17012 0.19967,66.07055 5.20533,0.16151 0.0207,8.67316 -11.81714,0.31376 -1.11407,5.9885 -60.84717,-0.0523 -1.81561,-5.91421 -130.530746,0.26978 -1.300916,5.17572 -60.167457,0.38877 -2.395772,-5.94733 -8.3420074,0.0207 -0.2113487,-9.33292 5.4356281,-0.10315 -0.905434,-66.05209 -4.9712447,10e-4 z"
       sodipodi:nodetypes="ccccccccccccccccccccccccccc" />
    <path
       style="display:inline;fill:none;stroke:#000000;stroke-width:0.909259px;stroke-linecap:butt;stroke-linejoin:miter;stroke-opacity:1"
       d="M 9.2723047,114.17994 287.36776,113.04462"
       id="path5787" />
    <path
       id="rect833"
       style="display:inline;opacity:0.987;fill:#777777;fill-opacity:1;fill-rule:evenodd;stroke:#000000;stroke-width:0.545028;stroke-opacity:0.987952;stop-color:#000000"
       d="m 120.14857,114.72944 h 56.70286 v 79.93412 h -56.70286 z" />
    <g
       id="allFan1"
       inkscape:label="allFan1"
       style="display:inline;fill:#777777;fill-opacity:1">
      <path
         id="leftFan-5"
         style="opacity:0.997;fill:#777777;fill-opacity:1;fill-rule:evenodd;stroke:#000000;stroke-width:0.63491;stroke-opacity:0.987952;stop-color:#000000"
         d="m 39.710674,132.49786 v 51.58341 h 36.490289 v -24.05434 h 44.081777 v -3.47472 H 76.200963 v -24.05435 z"
         inkscape:label="leftFan" />
      <path
         id="rightFan-6"
         style="opacity:0.997;fill:#777777;fill-opacity:1;fill-rule:evenodd;stroke:#000000;stroke-width:0.636815;stroke-opacity:0.987952;stop-color:#000000"
         d="m 220.1572,132.49786 v 24.05435 h -43.2744 v 3.47472 h 43.2744 v 24.05434 h 36.71023 v -51.58341 z"
         inkscape:label="rightFan" />
    </g>
    <g
       id="allFan"
       inkscape:label="allFan"
       style="display:inline;fill:#777777;fill-opacity:1">
      <path
         id="leftFan"
         style="opacity:0.997;fill:#777777;fill-opacity:1;fill-rule:evenodd;stroke:#000000;stroke-width:0.63491;stroke-opacity:0.987952;stop-color:#000000"
         d="m 39.921148,132.49786 v 51.58341 h 36.490289 v -24.05434 h 44.081773 v -3.47472 H 76.411437 v -24.05435 z"
         inkscape:label="leftFan" />
      <path
         id="rightFan"
         style="opacity:0.997;fill:#777777;fill-opacity:1;fill-rule:evenodd;stroke:#000000;stroke-width:0.636815;stroke-opacity:0.987952;stop-color:#000000"
         d="m 220.36767,132.49786 v 24.05435 h -43.2744 v 3.47472 h 43.2744 v 24.05434 h 36.71023 v -51.58341 z"
         inkscape:label="rightFan" />
    </g>
    <path
       id="path5530-1-0-20"
       style="display:inline;fill:#535b28;fill-opacity:0.64257;stroke:#000000;stroke-width:0.896303;stroke-linecap:butt;stroke-linejoin:miter;stroke-miterlimit:4;stroke-dasharray:none;stroke-opacity:1"
       d="m 171.6824,25.172279 v 35.127752 m -3.45922,-35.127752 v 36.264327 m -4.1404,-36.264327 v 36.264327 m -3.65329,-36.264327 v 36.264327 m -4.14038,-36.264327 v 36.264327 m -4.22154,-36.264327 v 36.264327 m -4.05922,-36.264327 v 36.264327 m -4.22943,-36.264327 v 36.264327 m -7.64946,-13.173335 v 13.395348 m -7.55012,-13.395348 v 13.395348 m 3.77504,-13.395348 v 13.395348 m 7.86285,-13.395348 V 61.658619 M 125.41316,48.263271 v 13.395348 m 8.83415,-36.224382 h 5.9702 v 22.388214 h -5.9702 z m -14.35171,1.262923 14.23659,-1.033302 0.11477,22.158602 -14.46622,0.344437 z m 14.12182,-22.0437871 26.75104,-0.2296314 9.51449,7.2305505 0.001,12.060702 2.79784,0.456576 0.14848,36.262629 -3.10841,0.02818 -0.19314,3.101946 -5.14279,3.546555 -35.59153,-0.574056 -4.37462,-2.885316 0.11719,-3.399172 -2.93546,-0.0165 v 0 l 0.0309,-10.674492 -5.19541,-0.0093 0.23197,-25.16497 7.18055,-0.312866 0.23643,-11.580651 z" />
  </g>
</svg>
